[api-updater (non-obsolete-error-filter)] 25/10/2021 13:36:19 : Starting /Applications/Unity/Hub/Editor/2020.3.19f1/Unity.app/Contents/Tools/ScriptUpdater/APIUpdater.NonObsoleteApiUpdaterDetector.exe
[api-updater (non-obsolete-error-filter)] 
----------------------------------
jit/startup time      : 353,236ms
moved types parse time: 103ms
candidates parse time : 2ms
C# parse time         : 415ms
candidates check time : 37ms
console write time    : 0ms

[api-updater (non-obsolete-error-filter)] 04/11/2021 20:40:03 : Starting /Applications/Unity/Hub/Editor/2020.3.19f1/Unity.app/Contents/Tools/ScriptUpdater/APIUpdater.NonObsoleteApiUpdaterDetector.exe
[api-updater (non-obsolete-error-filter)] 
----------------------------------
jit/startup time      : 542,125ms
moved types parse time: 90ms
candidates parse time : 2ms
C# parse time         : 512ms
candidates check time : 91ms
console write time    : 1ms

[api-updater (non-obsolete-error-filter)] 04/11/2021 20:47:49 : Starting /Applications/Unity/Hub/Editor/2020.3.19f1/Unity.app/Contents/Tools/ScriptUpdater/APIUpdater.NonObsoleteApiUpdaterDetector.exe
[api-updater (non-obsolete-error-filter)] 
----------------------------------
jit/startup time      : 213,039ms
moved types parse time: 107ms
candidates parse time : 2ms
C# parse time         : 487ms
candidates check time : 69ms
console write time    : 1ms

[api-updater (non-obsolete-error-filter)] 04/11/2021 20:48:22 : Starting /Applications/Unity/Hub/Editor/2020.3.19f1/Unity.app/Contents/Tools/ScriptUpdater/APIUpdater.NonObsoleteApiUpdaterDetector.exe
[api-updater (non-obsolete-error-filter)] 
----------------------------------
jit/startup time      : 323,662ms
moved types parse time: 97ms
candidates parse time : 2ms
C# parse time         : 469ms
candidates check time : 75ms
console write time    : 2ms

[api-updater (non-obsolete-error-filter)] 05/11/2021 8:53:31 : Starting /Applications/Unity/Hub/Editor/2020.3.19f1/Unity.app/Contents/Tools/ScriptUpdater/APIUpdater.NonObsoleteApiUpdaterDetector.exe
[api-updater (non-obsolete-error-filter)] 
----------------------------------
jit/startup time      : 342,143ms
moved types parse time: 100ms
candidates parse time : 2ms
C# parse time         : 506ms
candidates check time : 93ms
console write time    : 1ms

[api-updater (non-obsolete-error-filter)] 05/11/2021 9:02:05 : Starting /Applications/Unity/Hub/Editor/2020.3.19f1/Unity.app/Contents/Tools/ScriptUpdater/APIUpdater.NonObsoleteApiUpdaterDetector.exe
[api-updater (non-obsolete-error-filter)] 
----------------------------------
jit/startup time      : 234,301ms
moved types parse time: 99ms
candidates parse time : 1ms
C# parse time         : 573ms
candidates check time : 73ms
console write time    : 2ms

[api-updater (non-obsolete-error-filter)] 05/11/2021 9:20:03 : Starting /Applications/Unity/Hub/Editor/2020.3.19f1/Unity.app/Contents/Tools/ScriptUpdater/APIUpdater.NonObsoleteApiUpdaterDetector.exe
[api-updater (non-obsolete-error-filter)] Exception caught while loading types from /Users/nataliagarciabarbosa/Probuilder (1)/Library/ScriptAssemblies/Unity.TextMeshPro.Editor.dll (some types may not be loaded)
	Exception of type 'System.Reflection.ReflectionTypeLoadException' was thrown.
	  at (wrapper managed-to-native) System.Reflection.Assembly.GetTypes(System.Reflection.Assembly,bool)
  at System.Reflection.Assembly.GetTypes () [0x00000] in <695d1cc93cca45069c528c15c9fdd749>:0 
  at APIUpdater.NonObsoleteApiUpdaterDetector.ExtraInfoParser+<LoadTypesWithMovedFromAttributeAsync>d__3.MoveNext () [0x000c8] in <6358200448ef46218e7be4a1b6be469f>:0 
	Could not load file or assembly 'UnityEditor.CoreModule, Version=0.0.0.0, Culture=neutral, PublicKeyToken=null' or one of its dependencies.

[api-updater (non-obsolete-error-filter)] 
----------------------------------
jit/startup time      : 263,109ms
moved types parse time: 139ms
candidates parse time : 3ms
C# parse time         : 652ms
candidates check time : 81ms
console write time    : 1ms

[api-updater (non-obsolete-error-filter)] 05/11/2021 9:30:06 : Starting /Applications/Unity/Hub/Editor/2020.3.19f1/Unity.app/Contents/Tools/ScriptUpdater/APIUpdater.NonObsoleteApiUpdaterDetector.exe
[api-updater (non-obsolete-error-filter)] Exception caught while loading types from /Users/nataliagarciabarbosa/Probuilder (1)/Library/ScriptAssemblies/Unity.TextMeshPro.Editor.dll (some types may not be loaded)
	Exception of type 'System.Reflection.ReflectionTypeLoadException' was thrown.
	  at (wrapper managed-to-native) System.Reflection.Assembly.GetTypes(System.Reflection.Assembly,bool)
  at System.Reflection.Assembly.GetTypes () [0x00000] in <695d1cc93cca45069c528c15c9fdd749>:0 
  at APIUpdater.NonObsoleteApiUpdaterDetector.ExtraInfoParser+<LoadTypesWithMovedFromAttributeAsync>d__3.MoveNext () [0x000c8] in <6358200448ef46218e7be4a1b6be469f>:0 
	Could not load file or assembly 'UnityEditor.CoreModule, Version=0.0.0.0, Culture=neutral, PublicKeyToken=null' or one of its dependencies.

[api-updater (non-obsolete-error-filter)] 
----------------------------------
jit/startup time      : 222,754ms
moved types parse time: 116ms
candidates parse time : 1ms
C# parse time         : 523ms
candidates check time : 91ms
console write time    : 1ms

[api-updater (non-obsolete-error-filter)] 05/11/2021 9:40:02 : Starting /Applications/Unity/Hub/Editor/2020.3.19f1/Unity.app/Contents/Tools/ScriptUpdater/APIUpdater.NonObsoleteApiUpdaterDetector.exe
[api-updater (non-obsolete-error-filter)] 
----------------------------------
jit/startup time      : 291,553ms
moved types parse time: 93ms
candidates parse time : 2ms
C# parse time         : 463ms
candidates check time : 72ms
console write time    : 2ms

[api-updater (non-obsolete-error-filter)] 05/11/2021 9:40:41 : Starting /Applications/Unity/Hub/Editor/2020.3.19f1/Unity.app/Contents/Tools/ScriptUpdater/APIUpdater.NonObsoleteApiUpdaterDetector.exe
[api-updater (non-obsolete-error-filter)] 
----------------------------------
jit/startup time      : 88,194ms
moved types parse time: 70ms
candidates parse time : 2ms
C# parse time         : 464ms
candidates check time : 76ms
console write time    : 0ms

